{
    "transactions": [
      {
        "transaction_id": "GGLSEP1K0903",
        "transaction_number": "EGLSEP1K0903",
        "destination_currency": "USD",
        "destination_amount": 1,
        "local_conversion_currency": "USD",
        "statement_narrative": "Salary",
        "remitter_name": "Nivruti Auti",
        "remitter_account_type": "Individual",
        "remitter_identification_type": "Company Organization Code",
        "remitter_identification_number": "ABCDEFT66",
        "remitter_dob": "1992-12-12",
        "remitter_city": "MUMbai",
        "remitter_postcode": "70989",
        "remitter_country_code": "IN",
        "remitter_address": "Sakinaka Mumbai India",
        "remit_purpose_code": "IR01811",
        "remitter_source_of_income": "Cross border remittence",
        "remitter_beneficiary_relationship": "Employee",
        "remitter_contact_number": "1234567890",
        "beneficiary_name": "MOHAMMED RAEES MOHAMMED LUQMAN",
        "beneficiary_account_type": "Company",
        "beneficiary_address": "New york city USA",
        "beneficiary_city": "New York",
        "beneficiary_country_code": "AU",
        "beneficiary_email": "mark@abc.com",
        "beneficiary_contact_number": "1234567891",
        "beneficiary_state": "asd",
        "beneficiary_postcode": "asd",
        "beneficiary_account_number": "PL61109010140000071219812874",
        "beneficiary_bank_name": "Bank of Samoa",
        "beneficiary_bank_code": "",
        "beneficiary_identification_type": "Company Social Credit Code",
        "beneficiary_identification_value": "PPPPPPPPPPPPPPPPPP",
        "routing_code_type_1": "SWIFT",
        "routing_code_value_1": "1234MY89",
        "routing_code_type_2": "ACH CODE",
        "routing_code_value_2": "123456789",
        "routing_code_type_3": "",
        "routing_code_value_3": ""
      },
      {
        "transaction_id": "GGLSEP1K0901",
        "transaction_number": "EGLSEP1K0901",
        "destination_currency": "USD",
        "destination_amount": 1,
        "local_conversion_currency": "USD",
        "statement_narrative": "Salary",
        "remitter_name": "Nivruti Auti",
        "remitter_account_type": "Individual",
        "remitter_identification_type": "Company Organization Code",
        "remitter_identification_number": "ABCDEFT66",
        "remitter_dob": "1992-12-12",
        "remitter_city": "MUMbai",
        "remitter_postcode": "70989",
        "remitter_country_code": "IN",
        "remitter_address": "Sakinaka Mumbai India",
        "remit_purpose_code": "IR01811",
        "remitter_source_of_income": "Cross border remittence",
        "remitter_beneficiary_relationship": "Employee",
        "remitter_contact_number": "1234567890",
        "beneficiary_name": "MOHAMMED RAEES MOHAMMED LUQMAN",
        "beneficiary_account_type": "Company",
        "beneficiary_address": "New york city USA",
        "beneficiary_city": "New York",
        "beneficiary_country_code": "AU",
        "beneficiary_email": "mark@abc.com",
        "beneficiary_contact_number": "1234567891",
        "beneficiary_state": "asd",
        "beneficiary_postcode": "asd",
        "beneficiary_account_number": "PL61109010140000071219812874",
        "beneficiary_bank_name": "Bank of Samoa",
        "beneficiary_bank_code": "",
        "beneficiary_identification_type": "Company Social Credit Code",
        "beneficiary_identification_value": "PPPPPPPPPPPPPPPPPP",
        "routing_code_type_1": "SWIFT",
        "routing_code_value_1": "1234MY89",
        "routing_code_type_2": "ACH CODE",
        "routing_code_value_2": "123456789",
        "routing_code_type_3": "",
        "routing_code_value_3": ""
      },
      {
        "transaction_id": "GGLSEP1K0901",
        "transaction_number": "EGLSEP1K0901",
        "destination_currency": "USD",
        "destination_amount": 1,
        "local_conversion_currency": "USD",
        "statement_narrative": "Salary",
        "remitter_name": "Nivruti Auti",
        "remitter_account_type": "Individual",
        "remitter_identification_type": "Company Organization Code",
        "remitter_identification_number": "ABCDEFT66",
        "remitter_dob": "1992-12-12",
        "remitter_city": "MUMbai",
        "remitter_postcode": "70989",
        "remitter_country_code": "IN",
        "remitter_address": "Sakinaka Mumbai India",
        "remit_purpose_code": "IR01811",
        "remitter_source_of_income": "Cross border remittence",
        "remitter_beneficiary_relationship": "Employee",
        "remitter_contact_number": "1234567890",
        "beneficiary_name": "MOHAMMED RAEES MOHAMMED LUQMAN",
        "beneficiary_account_type": "Company",
        "beneficiary_address": "New york city USA",
        "beneficiary_city": "New York",
        "beneficiary_country_code": "AU",
        "beneficiary_email": "mark@abc.com",
        "beneficiary_contact_number": "1234567891",
        "beneficiary_state": "asd",
        "beneficiary_postcode": "asd",
        "beneficiary_account_number": "PL61109010140000071219812874",
        "beneficiary_bank_name": "Bank of Samoa",
        "beneficiary_bank_code": "",
        "beneficiary_identification_type": "Company Social Credit Code",
        "beneficiary_identification_value": "PPPPPPPPPPPPPPPPPP",
        "routing_code_type_1": "SWIFT",
        "routing_code_value_1": "1234MY89",
        "routing_code_type_2": "ACH CODE",
        "routing_code_value_2": "123456789",
        "routing_code_type_3": "",
        "routing_code_value_3": ""
      },
      {
        "transaction_id": "GGLSEP1K0902",
        "transaction_number": "EGLSEP1K0902",
        "destination_currency": "USD",
        "destination_amount": 1,
        "local_conversion_currency": "USD",
        "statement_narrative": "Salary",
        "remitter_name": "Nivruti Auti",
        "remitter_account_type": "Individual",
        "remitter_identification_type": "Company Organization Code",
        "remitter_identification_number": "ABCDEFT66",
        "remitter_dob": "1992-12-12",
        "remitter_city": "MUMbai",
        "remitter_postcode": "70989",
        "remitter_country_code": "IN",
        "remitter_address": "Sakinaka Mumbai India",
        "remit_purpose_code": "IR01811",
        "remitter_source_of_income": "Cross border remittence",
        "remitter_beneficiary_relationship": "Employee",
        "remitter_contact_number": "1234567890",
        "beneficiary_name": "MOHAMMED RAEES MOHAMMED LUQMAN",
        "beneficiary_account_type": "Company",
        "beneficiary_address": "New york city USA",
        "beneficiary_city": "New York",
        "beneficiary_country_code": "AU",
        "beneficiary_email": "mark@abc.com",
        "beneficiary_contact_number": "1234567891",
        "beneficiary_state": "asd",
        "beneficiary_postcode": "asd",
        "beneficiary_account_number": "PL61109010140000071219812874",
        "beneficiary_bank_name": "Bank of Samoa",
        "beneficiary_bank_code": "",
        "beneficiary_identification_type": "Company Social Credit Code",
        "beneficiary_identification_value": "PPPPPPPPPPPPPPPPPP",
        "routing_code_type_1": "SWIFT",
        "routing_code_value_1": "1234MY89",
        "routing_code_type_2": "ACH CODE",
        "routing_code_value_2": "123456789",
        "routing_code_type_3": "",
        "routing_code_value_3": ""
      },
      {
        "transaction_id": "GGLSEP1K0903",
        "transaction_number": "EGLSEP1K0903",
        "destination_currency": "USD",
        "destination_amount": 1,
        "local_conversion_currency": "USD",
        "statement_narrative": "Salary",
        "remitter_name": "Nivruti Auti",
        "remitter_account_type": "Individual",
        "remitter_identification_type": "Company Organization Code",
        "remitter_identification_number": "ABCDEFT66",
        "remitter_dob": "1992-12-12",
        "remitter_city": "MUMbai",
        "remitter_postcode": "70989",
        "remitter_country_code": "IN",
        "remitter_address": "Sakinaka Mumbai India",
        "remit_purpose_code": "IR01811",
        "remitter_source_of_income": "Cross border remittence",
        "remitter_beneficiary_relationship": "Employee",
        "remitter_contact_number": "1234567890",
        "beneficiary_name": "MOHAMMED RAEES MOHAMMED LUQMAN",
        "beneficiary_account_type": "Company",
        "beneficiary_address": "New york city USA",
        "beneficiary_city": "New York",
        "beneficiary_country_code": "AU",
        "beneficiary_email": "mark@abc.com",
        "beneficiary_contact_number": "1234567891",
        "beneficiary_state": "asd",
        "beneficiary_postcode": "asd",
        "beneficiary_account_number": "PL61109010140000071219812874",
        "beneficiary_bank_name": "Bank of Samoa",
        "beneficiary_bank_code": "",
        "beneficiary_identification_type": "Company Social Credit Code",
        "beneficiary_identification_value": "PPPPPPPPPPPPPPPPPP",
        "routing_code_type_1": "SWIFT",
        "routing_code_value_1": "1234MY89",
        "routing_code_type_2": "ACH CODE",
        "routing_code_value_2": "123456789",
        "routing_code_type_3": "",
        "routing_code_value_3": ""
      }
    ]
  }